<svg width="131" height="25" viewBox="0 0 131 25" fill="none" xmlns="http://www.w3.org/2000/svg">
<path d="M8.48 24.16C6.90133 24.16 5.68533 23.7333 4.832 22.88C3.97867 22.0267 3.552 20.8213 3.552 19.264V3.488H5.824V19.136C5.824 20.1173 6.06933 20.8747 6.56 21.408C7.072 21.9413 7.79733 22.208 8.736 22.208C9.73867 22.208 10.5707 21.92 11.232 21.344L12.032 22.976C11.584 23.3813 11.04 23.68 10.4 23.872C9.78133 24.064 9.14133 24.16 8.48 24.16ZM0.544 9.088V7.2H10.944V9.088H0.544ZM24.744 7.04C26.1093 7.04 27.304 7.30667 28.328 7.84C29.3733 8.352 30.184 9.14133 30.76 10.208C31.3573 11.2747 31.656 12.6187 31.656 14.24V24H29.384V14.464C29.384 12.6933 28.936 11.36 28.04 10.464C27.1653 9.54667 25.928 9.088 24.328 9.088C23.1333 9.088 22.088 9.33333 21.192 9.824C20.3173 10.2933 19.6347 10.9867 19.144 11.904C18.6747 12.8 18.44 13.888 18.44 15.168V24H16.168V0.255999H18.44V11.808L17.992 10.944C18.5253 9.728 19.3787 8.77867 20.552 8.096C21.7253 7.392 23.1227 7.04 24.744 7.04ZM44.929 24.16C43.1797 24.16 41.6437 23.7973 40.321 23.072C38.9983 22.3253 37.9637 21.312 37.217 20.032C36.4703 18.7307 36.097 17.248 36.097 15.584C36.097 13.92 36.449 12.448 37.153 11.168C37.8783 9.888 38.8597 8.88533 40.097 8.16C41.3557 7.41333 42.7637 7.04 44.321 7.04C45.8997 7.04 47.297 7.40267 48.513 8.128C49.7503 8.832 50.721 9.83467 51.425 11.136C52.129 12.416 52.481 13.8987 52.481 15.584C52.481 15.6907 52.4703 15.808 52.449 15.936C52.449 16.0427 52.449 16.16 52.449 16.288H37.825V14.592H51.233L50.337 15.264C50.337 14.048 50.0703 12.9707 49.537 12.032C49.025 11.072 48.321 10.3253 47.425 9.792C46.529 9.25867 45.4943 8.992 44.321 8.992C43.169 8.992 42.1343 9.25867 41.217 9.792C40.2997 10.3253 39.585 11.072 39.073 12.032C38.561 12.992 38.305 14.0907 38.305 15.328V15.68C38.305 16.96 38.5823 18.0907 39.137 19.072C39.713 20.032 40.5023 20.7893 41.505 21.344C42.529 21.8773 43.6917 22.144 44.993 22.144C46.017 22.144 46.9663 21.9627 47.841 21.6C48.737 21.2373 49.505 20.6827 50.145 19.936L51.425 21.408C50.6783 22.304 49.7397 22.9867 48.609 23.456C47.4997 23.9253 46.273 24.16 44.929 24.16Z" fill="white"/>
<path d="M71.9535 1.6H77.1375V24H71.9535V1.6ZM61.7775 24H56.5935V1.6H61.7775V24ZM72.3375 14.816H61.3935V10.432H72.3375V14.816ZM92.6453 24V20.64L92.3253 19.904V13.888C92.3253 12.8213 91.9946 11.9893 91.3333 11.392C90.6933 10.7947 89.7013 10.496 88.3573 10.496C87.4399 10.496 86.5333 10.6453 85.6373 10.944C84.7626 11.2213 84.0159 11.6053 83.3973 12.096L81.6053 8.608C82.5439 7.94667 83.6746 7.43467 84.9973 7.072C86.3199 6.70933 87.6639 6.528 89.0293 6.528C91.6533 6.528 93.6906 7.14667 95.1413 8.384C96.5919 9.62133 97.3173 11.552 97.3173 14.176V24H92.6453ZM87.3973 24.256C86.0533 24.256 84.9013 24.032 83.9413 23.584C82.9813 23.1147 82.2453 22.4853 81.7333 21.696C81.2213 20.9067 80.9653 20.0213 80.9653 19.04C80.9653 18.016 81.2106 17.12 81.7013 16.352C82.2133 15.584 83.0133 14.9867 84.1013 14.56C85.1893 14.112 86.6079 13.888 88.3573 13.888H92.9333V16.8H88.9013C87.7279 16.8 86.9173 16.992 86.4693 17.376C86.0426 17.76 85.8293 18.24 85.8293 18.816C85.8293 19.456 86.0746 19.968 86.5653 20.352C87.0773 20.7147 87.7706 20.896 88.6453 20.896C89.4773 20.896 90.2239 20.704 90.8853 20.32C91.5466 19.9147 92.0266 19.328 92.3253 18.56L93.0933 20.864C92.7306 21.9733 92.0693 22.816 91.1093 23.392C90.1493 23.968 88.9119 24.256 87.3973 24.256ZM123.883 6.528C125.249 6.528 126.454 6.80533 127.499 7.36C128.566 7.89333 129.398 8.72533 129.995 9.856C130.614 10.9653 130.923 12.3947 130.923 14.144V24H125.931V14.912C125.931 13.5253 125.643 12.5013 125.067 11.84C124.491 11.1787 123.681 10.848 122.635 10.848C121.91 10.848 121.259 11.0187 120.683 11.36C120.107 11.68 119.659 12.1707 119.339 12.832C119.019 13.4933 118.859 14.336 118.859 15.36V24H113.867V14.912C113.867 13.5253 113.579 12.5013 113.003 11.84C112.449 11.1787 111.649 10.848 110.603 10.848C109.878 10.848 109.227 11.0187 108.651 11.36C108.075 11.68 107.627 12.1707 107.307 12.832C106.987 13.4933 106.827 14.336 106.827 15.36V24H101.835V6.784H106.603V11.488L105.707 10.112C106.305 8.93867 107.147 8.05333 108.235 7.456C109.345 6.83733 110.603 6.528 112.011 6.528C113.59 6.528 114.966 6.93333 116.139 7.744C117.334 8.53333 118.123 9.74933 118.507 11.392L116.747 10.912C117.323 9.568 118.241 8.50133 119.499 7.712C120.779 6.92267 122.241 6.528 123.883 6.528Z" fill="#18CFAB"/>
</svg>
